{"mainInfo":{"currentUrl":"\/\/top.taobao.com\/index.php?spm=a1z5i.3.4.6.Xlx35B&topId=TR_SM&leafId=1101&rank=brand&type=hot"},"pageName":"bang","mods":{"header":{"data":{"q":"","marketsOff":"1","product":{"name":"\u6392\u884c\u699c"},"tabParams":{"js":1,"stats_click":"","initiative_id":"staobaoz_20141225"},"baseAction":"\/\/s.taobao.com\/search","dropdown":[{"url":"\/\/s.taobao.com\/search","text":"\u5b9d\u8d1d","type":"item","isActive":true},{"url":"\/\/shopsearch.taobao.com\/search","text":"\u5e97\u94fa","type":"shop","isActive":false}],"spmModId":"1"},"status":"show"},"tab":{"data":{"tabs":[{"type":"all","weight":10,"name":"mall","id":"HOME","trace":"","href":"\/\/top.taobao.com\/index.php?topId=HOME","text":"\u9996\u9875","spmId":""},{"type":"all","weight":20,"name":"mall","id":"TR_FS","trace":"","href":"\/\/top.taobao.com\/index.php?topId=TR_FS&leafId=50010850","text":"\u670d\u9970","spmId":""},{"type":"all","weight":20,"name":"mall","id":"TR_SM","trace":"","href":"\/\/top.taobao.com\/index.php?topId=TR_SM&leafId=1101","text":"\u6570\u7801\u5bb6\u7535","spmId":"","isActive":true},{"type":"all","weight":20,"name":"mall","id":"TR_HZP","trace":"","href":"\/\/top.taobao.com\/index.php?topId=TR_HZP&leafId=121454013","text":"\u5316\u5986\u54c1","spmId":""},{"type":"all","weight":20,"name":"mall","id":"TR_MY","trace":"","href":"\/\/top.taobao.com\/index.php?topId=TR_MY&leafId=50013618","text":"\u6bcd\u5a74","spmId":""},{"type":"all","weight":20,"name":"mall","id":"TR_SP","trace":"","href":"\/\/top.taobao.com\/index.php?topId=TR_SP&leafId=50008055","text":"\u98df\u54c1","spmId":""},{"type":"all","weight":20,"name":"mall","id":"TR_WT","trace":"","href":"\/\/top.taobao.com\/index.php?topId=TR_WT&leafId=50014075","text":"\u6587\u4f53","spmId":""},{"type":"all","weight":20,"name":"mall","id":"TR_JJ","trace":"","href":"\/\/top.taobao.com\/index.php?topId=TR_JJ&leafId=50016434","text":"\u5bb6\u5c45","spmId":""},{"type":"all","weight":20,"name":"mall","id":"TR_ZH","trace":"","href":"\/\/top.taobao.com\/index.php?topId=TR_ZH&leafId=50011975","text":"\u8f66|\u73a9\u5177|\u5ba0\u7269","spmId":""}],"spmModId":"2"},"status":"show"},"cstyle":{"data":{"mainColor":"#0dc3ce"},"status":"show"},"nav":{"data":{"common":[{"text":"\u7535\u8111\/\u914d\u4ef6","sub":[{"text":"\u7b14\u8bb0\u672c","value":"1101","desc":"","key":"leafId","url":".\/index.php?topId=TR_SM&leafId=1101","selected":1},{"text":"\u5e73\u677f\u7535\u8111","value":"50019780","desc":"","key":"leafId","url":".\/index.php?topId=TR_SM&leafId=50019780"},{"text":"U\u76d8","value":"50012165","desc":"","key":"leafId","url":".\/index.php?topId=TR_SM&leafId=50012165"},{"text":"\u7535\u8111\u97f3\u7bb1","value":"50001810","desc":"","key":"leafId","url":".\/index.php?topId=TR_SM&leafId=50001810"},{"text":"\u53f0\u5f0f\u6574\u673a","value":"50008351","desc":"","key":"leafId","url":".\/index.php?topId=TR_SM&leafId=50008351"},{"text":"\u8def\u7531\u5668","value":"110808","desc":"","key":"leafId","url":".\/index.php?topId=TR_SM&leafId=110808"},{"text":"\u7f51\u7edc\u4ea4\u6362\u673a","value":"110805","desc":"","key":"leafId","url":".\/index.php?topId=TR_SM&leafId=110805"},{"text":"\u79fb\u52a8\u786c\u76d8","value":"110507","desc":"","key":"leafId","url":".\/index.php?topId=TR_SM&leafId=110507"},{"text":"\u6db2\u6676\u663e\u793a\u5668","value":"110502","desc":"","key":"leafId","url":".\/index.php?topId=TR_SM&leafId=110502"},{"text":"\u663e\u5361","value":"110206","desc":"","key":"leafId","url":".\/index.php?topId=TR_SM&leafId=110206"},{"text":"\u4e3b\u677f","value":"110201","desc":"","key":"leafId","url":".\/index.php?topId=TR_SM&leafId=110201"},{"text":"CPU","value":"110203","desc":"","key":"leafId","url":".\/index.php?topId=TR_SM&leafId=110203"},{"text":"\u6563\u70ed\u8bbe\u5907","value":"110215","desc":"","key":"leafId","url":".\/index.php?topId=TR_SM&leafId=110215"},{"text":"\u673a\u7bb1","value":"110211","desc":"","key":"leafId","url":".\/index.php?topId=TR_SM&leafId=110211"},{"text":"\u786c\u76d8","value":"110207","desc":"","key":"leafId","url":".\/index.php?topId=TR_SM&leafId=110207"},{"text":"\u5185\u5b58","value":"110202","desc":"","key":"leafId","url":".\/index.php?topId=TR_SM&leafId=110202"},{"text":"\u53f0\u673a\u7535\u6e90","value":"50003848","desc":"","key":"leafId","url":".\/index.php?topId=TR_SM&leafId=50003848"},{"text":"\u5149\u9a71\/\u523b\u5f55\u673a","value":"110212","desc":"","key":"leafId","url":".\/index.php?topId=TR_SM&leafId=110212"},{"text":"\u670d\u52a1\u5668","value":"50010605","desc":"","key":"leafId","url":".\/index.php?topId=TR_SM&leafId=50010605"},{"text":"\u6709\u7ebf\u9f20\u6807","value":"50012307","desc":"","key":"leafId","url":".\/index.php?topId=TR_SM&leafId=50012307"},{"text":"\u65e0\u7ebf\u9f20\u6807","value":"50012320","desc":"","key":"leafId","url":".\/index.php?topId=TR_SM&leafId=50012320"},{"text":"\u952e\u76d8","value":"110210","desc":"","key":"leafId","url":".\/index.php?topId=TR_SM&leafId=110210"}],"defaultShowMore":true},{"text":"\u624b\u673a\/\u914d\u4ef6","sub":[{"text":"\u70ed\u9500\u624b\u673a","value":"1512","desc":"","key":"leafId","url":".\/index.php?topId=TR_SM&leafId=1512"},{"text":"\u56fd\u8d27\u624b\u673a","value":"50012081","desc":"","key":"leafId","url":".\/index.php?topId=TR_SM&leafId=50012081"},{"text":"\u624b\u673a\u914d\u4ef6","value":"50024094","desc":"","key":"leafId","url":".\/index.php?topId=TR_SM&leafId=50024094"}],"defaultShowMore":false},{"text":"\u6444\u5f71\u5668\u6750","sub":[{"text":"\u666e\u901a\u6570\u7801\u76f8\u673a","value":"1403","desc":"","key":"leafId","url":".\/index.php?topId=TR_SM&leafId=1403"},{"text":"\u4e13\u4e1a\u5355\u53cd\u76f8\u673a","value":"50003773","desc":"","key":"leafId","url":".\/index.php?topId=TR_SM&leafId=50003773"},{"text":"\u6570\u7801\u6444\u50cf\u673a","value":"1402","desc":"","key":"leafId","url":".\/index.php?topId=TR_SM&leafId=1402"},{"text":"\u955c\u5934","value":"140116","desc":"","key":"leafId","url":".\/index.php?topId=TR_SM&leafId=140116"},{"text":"\u6570\u7801\u76f8\u6846","value":"50008482","desc":"","key":"leafId","url":".\/index.php?topId=TR_SM&leafId=50008482"},{"text":"\u4e09\u89d2\u67b6","value":"50010848","desc":"","key":"leafId","url":".\/index.php?topId=TR_SM&leafId=50010848"}],"defaultShowMore":false},{"text":"\u5f71\u97f3\u4ea7\u54c1","sub":[{"text":"MP3\/MP4","value":"1201","desc":"","key":"leafId","url":".\/index.php?topId=TR_SM&leafId=1201"},{"text":"\u8033\u673a\u8033\u9ea6","value":"1205","desc":"","key":"leafId","url":".\/index.php?topId=TR_SM&leafId=1205"},{"text":"\u786c\u76d8\u64ad\u653e\u5668","value":"50005174","desc":"","key":"leafId","url":".\/index.php?topId=TR_SM&leafId=50005174"},{"text":"\u6444\u50cf\u5934","value":"110508","desc":"","key":"leafId","url":".\/index.php?topId=TR_SM&leafId=110508"},{"text":"\u5bb6\u5ead\u5f71\u9662","value":"50001813","desc":"","key":"leafId","url":".\/index.php?topId=TR_SM&leafId=50001813"},{"text":"Hifi\u97f3\u7bb1","value":"121703","desc":"","key":"leafId","url":".\/index.php?topId=TR_SM&leafId=121703"}],"defaultShowMore":false},{"text":"\u53a8\u623f\u5bb6\u7535","sub":[{"text":"\u8c46\u6d46\u673a","value":"50008556","desc":"","key":"leafId","url":".\/index.php?topId=TR_SM&leafId=50008556"},{"text":"\u7535\u538b\u529b\u9505","value":"50013009","desc":"","key":"leafId","url":".\/index.php?topId=TR_SM&leafId=50013009"},{"text":"\u7535\u70ed\u6c34\u58f6","value":"50003695","desc":"","key":"leafId","url":".\/index.php?topId=TR_SM&leafId=50003695"},{"text":"\u6cb9\u70df\u673a","value":"350511","desc":"","key":"leafId","url":".\/index.php?topId=TR_SM&leafId=350511"},{"text":"\u5fae\u6ce2\u7089","value":"50002809","desc":"","key":"leafId","url":".\/index.php?topId=TR_SM&leafId=50002809"},{"text":"\u7535\u996d\u9505","value":"50013008","desc":"","key":"leafId","url":".\/index.php?topId=TR_SM&leafId=50013008"},{"text":"\u7535\u78c1\u7089","value":"350502","desc":"","key":"leafId","url":".\/index.php?topId=TR_SM&leafId=350502"},{"text":"\u69a8\u6c41\u673a","value":"50012097","desc":"","key":"leafId","url":".\/index.php?topId=TR_SM&leafId=50012097"},{"text":"\u71c3\u6c14\u7076","value":"50015382","desc":"","key":"leafId","url":".\/index.php?topId=TR_SM&leafId=50015382"},{"text":"\u9178\u5976\u673a","value":"50002535","desc":"","key":"leafId","url":".\/index.php?topId=TR_SM&leafId=50002535"}],"defaultShowMore":false},{"text":"\u751f\u6d3b\u5bb6\u7535","sub":[{"text":"\u5e73\u677f\u7535\u89c6","value":"50019790","desc":"","key":"leafId","url":".\/index.php?topId=TR_SM&leafId=50019790"},{"text":"\u7535\u52a8\u7259\u5237","value":"350203","desc":"","key":"leafId","url":".\/index.php?topId=TR_SM&leafId=350203"},{"text":"\u5243\u987b\u5200","value":"350201","desc":"","key":"leafId","url":".\/index.php?topId=TR_SM&leafId=350201"},{"text":"\u6d17\u8863\u673a","value":"350301","desc":"","key":"leafId","url":".\/index.php?topId=TR_SM&leafId=350301"},{"text":"\u53d6\u6696\u5668","value":"350404","desc":"","key":"leafId","url":".\/index.php?topId=TR_SM&leafId=350404"},{"text":"\u5377\/\u76f4\u53d1\u5668","value":"50010401","desc":"","key":"leafId","url":".\/index.php?topId=TR_SM&leafId=50010401"},{"text":"\u8db3\u6d74\u5668","value":"50005180","desc":"","key":"leafId","url":".\/index.php?topId=TR_SM&leafId=50005180"},{"text":"\u52a0\/\u62bd\u6e7f\u5668","value":"350407","desc":"","key":"leafId","url":".\/index.php?topId=TR_SM&leafId=350407"},{"text":"\u51b0\u7bb1","value":"50003881","desc":"","key":"leafId","url":".\/index.php?topId=TR_SM&leafId=50003881"},{"text":"\u4f53\u91cd\u79e4","value":"350712","desc":"","key":"leafId","url":".\/index.php?topId=TR_SM&leafId=350712"},{"text":"\u7a7a\u8c03","value":"350401","desc":"","key":"leafId","url":".\/index.php?topId=TR_SM&leafId=350401"},{"text":"\u5438\u5c18\u5668","value":"50008554","desc":"","key":"leafId","url":".\/index.php?topId=TR_SM&leafId=50008554"}],"defaultShowMore":false},{"text":"\u529e\u516c\u6570\u7801","sub":[{"text":"\u6295\u5f71\u673a","value":"111219","desc":"","key":"leafId","url":".\/index.php?topId=TR_SM&leafId=111219"},{"text":"\u5b66\u4e60\u673a","value":"121410018","desc":"","key":"leafId","url":".\/index.php?topId=TR_SM&leafId=121410018"},{"text":"\u6253\u5370\u673a","value":"110514","desc":"","key":"leafId","url":".\/index.php?topId=TR_SM&leafId=110514"}],"defaultShowMore":false},{"text":"3c\u6570\u7801\u914d\u4ef6","sub":[{"text":"\u5bb6\u7535\u5f71\u97f3\u5468\u8fb9\u914d\u4ef6","value":"50011826","desc":"","key":"leafId","url":".\/index.php?topId=TR_SM&leafId=50011826"},{"text":"\u6570\u7801\u76f8\u673a\u914d\u4ef6","value":"50024096","desc":"","key":"leafId","url":".\/index.php?topId=TR_SM&leafId=50024096"},{"text":"\u7b14\u8bb0\u672c\u7535\u8111\u914d\u4ef6","value":"50024095","desc":"","key":"leafId","url":".\/index.php?topId=TR_SM&leafId=50024095"},{"text":"\u5355\u53cd\/\u5355\u7535\u76f8\u673a\u914d\u4ef6","value":"50024097","desc":"","key":"leafId","url":".\/index.php?topId=TR_SM&leafId=50024097"}],"defaultShowMore":false}],"spmModId":"3"},"status":"show"},"bswitch":{"data":{"switchs":[{"name":"\u9500\u552e\u4e0a\u5347\u699c","key":"leafId","value":"","rank":"sale","type":"up","url":".\/index.php?topId=TR_SM&leafId=1101&rank=sale&type=up"},{"name":"\u9500\u552e\u70ed\u95e8\u6392\u884c","key":"leafId","value":"","rank":"sale","type":"hot","url":".\/index.php?topId=TR_SM&leafId=1101&rank=sale&type=hot"},{"name":"\u641c\u7d22\u4e0a\u5347\u699c","key":"leafId","value":"","rank":"search","type":"up","url":".\/index.php?topId=TR_SM&leafId=1101&rank=search&type=up"},{"name":"\u641c\u7d22\u70ed\u95e8\u6392\u884c","key":"leafId","value":"","rank":"search","type":"hot","url":".\/index.php?topId=TR_SM&leafId=1101&rank=search&type=hot"},{"name":"\u54c1\u724c\u4e0a\u5347\u699c","key":"leafId","value":"","rank":"brand","type":"up","url":".\/index.php?topId=TR_SM&leafId=1101&rank=brand&type=up"},{"name":"\u54c1\u724c\u70ed\u95e8\u6392\u884c","key":"leafId","value":"","rank":"brand","type":"hot","url":".\/index.php?topId=TR_SM&leafId=1101&rank=brand&type=hot","selected":true}],"spmModId":"4"},"status":"show"},"wbang":{"data":{"titleRow":{"col1":{"text":"\u6392\u540d","width":5},"col2":{"text":"\u54c1\u724c","width":30},"col3":{"text":"\u53c2\u8003\u4ef7","width":0},"col4":{"text":"\u5173\u6ce8\u6307\u6570","width":35},"col5":{"text":"\u5347\u964d\u4f4d\u6b21","width":15},"col6":{"text":"\u5347\u964d\u5e45\u5ea6","width":15}},"list":[{"col1":{"text":1,"type":"focus"},"col2":{"text":"Lenovo\/\u8054\u60f3","url":"\/\/s.taobao.com\/search?q=Lenovo\/\u8054\u60f3&cat=1101"},"col3":[],"col4":{"num":"16302.5","percent":100},"col5":{"text":0,"upOrDown":2},"col6":{"text":"0%","upOrDown":2},"desc":[]},{"col1":{"text":2,"type":"focus"},"col2":{"text":"Asus\/\u534e\u7855","url":"\/\/s.taobao.com\/search?q=Asus\/\u534e\u7855&cat=1101"},"col3":[],"col4":{"num":"16074.9","percent":92.112},"col5":{"text":0,"upOrDown":2},"col6":{"text":"0%","upOrDown":2},"desc":[]},{"col1":{"text":3,"type":"focus"},"col2":{"text":"Apple\/\u82f9\u679c","url":"\/\/s.taobao.com\/search?q=Apple\/\u82f9\u679c&cat=1101"},"col3":[],"col4":{"num":"15867.5","percent":85.4082},"col5":{"text":0,"upOrDown":2},"col6":{"text":"0%","upOrDown":2},"desc":[]},{"col1":{"text":4,"type":"important"},"col2":{"text":"Dell\/\u6234\u5c14","url":"\/\/s.taobao.com\/search?q=Dell\/\u6234\u5c14&cat=1101"},"col3":[],"col4":{"num":"14278.8","percent":46.7846},"col5":{"text":0,"upOrDown":2},"col6":{"text":"0%","upOrDown":2},"desc":[]},{"col1":{"text":5,"type":"important"},"col2":{"text":"ThinkPad","url":"\/\/s.taobao.com\/search?q=ThinkPad&cat=1101"},"col3":[],"col4":{"num":"13939.8","percent":40.9115},"col5":{"text":0,"upOrDown":2},"col6":{"text":"0%","upOrDown":2},"desc":[]},{"col1":{"text":6,"type":"important"},"col2":{"text":"Hasee\/\u795e\u821f","url":"\/\/s.taobao.com\/search?q=Hasee\/\u795e\u821f&cat=1101"},"col3":[],"col4":{"num":"13662","percent":36.5931},"col5":{"text":0,"upOrDown":2},"col6":{"text":"0%","upOrDown":2},"desc":[]},{"col1":{"text":7,"type":"important"},"col2":{"text":"HP\/\u60e0\u666e","url":"\/\/s.taobao.com\/search?q=HP\/\u60e0\u666e&cat=1101"},"col3":[],"col4":{"num":"13274.9","percent":31.2455},"col5":{"text":0,"upOrDown":2},"col6":{"text":"0%","upOrDown":2},"desc":[]},{"col1":{"text":8,"type":"important"},"col2":{"text":"MIUI\/\u5c0f\u7c73","url":"\/\/s.taobao.com\/search?q=MIUI\/\u5c0f\u7c73&cat=1101"},"col3":[],"col4":{"num":"12737.9","percent":24.966},"col5":{"text":0,"upOrDown":2},"col6":{"text":"0%","upOrDown":2},"desc":[]},{"col1":{"text":9,"type":"important"},"col2":{"text":"alienware","url":"\/\/s.taobao.com\/search?q=alienware&cat=1101"},"col3":[],"col4":{"num":"12130.8","percent":19.2233},"col5":{"text":0,"upOrDown":2},"col6":{"text":"0%","upOrDown":2},"desc":[]},{"col1":{"text":10,"type":"important"},"col2":{"text":"\u70ab\u9f99\uff08\u6570\u7801\uff09","url":"\/\/s.taobao.com\/search?q=\u70ab\u9f99\uff08\u6570\u7801\uff09&cat=1101"},"col3":[],"col4":{"num":"11447.4","percent":14.172},"col5":{"text":0,"upOrDown":2},"col6":{"text":"0%","upOrDown":2},"desc":[]},{"col1":{"text":11},"col2":{"text":"MACHENIKE","url":"\/\/s.taobao.com\/search?q=MACHENIKE&cat=1101"},"col3":[],"col4":{"num":"11113.8","percent":12.1584},"col5":{"text":0,"upOrDown":2},"col6":{"text":"0%","upOrDown":2},"desc":[]},{"col1":{"text":12},"col2":{"text":"THUNDEROBOT","url":"\/\/s.taobao.com\/search?q=THUNDEROBOT&cat=1101"},"col3":[],"col4":{"num":"10899.1","percent":10.9982},"col5":{"text":0,"upOrDown":2},"col6":{"text":"0%","upOrDown":2},"desc":[]},{"col1":{"text":13},"col2":{"text":"Huawei\/\u534e\u4e3a","url":"\/\/s.taobao.com\/search?q=Huawei\/\u534e\u4e3a&cat=1101"},"col3":[],"col4":{"num":"10760.3","percent":10.3011},"col5":{"text":1,"upOrDown":1},"col6":{"text":"7.1%","upOrDown":1},"desc":[]},{"col1":{"text":14},"col2":{"text":"MSI\/\u5fae\u661f","url":"\/\/s.taobao.com\/search?q=MSI\/\u5fae\u661f&cat=1101"},"col3":[],"col4":{"num":"10759.7","percent":10.2979},"col5":{"text":1,"upOrDown":0},"col6":{"text":"7.7%","upOrDown":0},"desc":[]},{"col1":{"text":15},"col2":{"text":"Acer\/\u5b8f\u7881","url":"\/\/s.taobao.com\/search?q=Acer\/\u5b8f\u7881&cat=1101"},"col3":[],"col4":{"num":"9972.9","percent":7.02484},"col5":{"text":0,"upOrDown":2},"col6":{"text":"0%","upOrDown":2},"desc":[]},{"col1":{"text":16},"col2":{"text":"\u795e\u821f\u6218\u795e","url":"\/\/s.taobao.com\/search?q=\u795e\u821f\u6218\u795e&cat=1101"},"col3":[],"col4":{"num":"9664.1","percent":6.01263},"col5":{"text":0,"upOrDown":2},"col6":{"text":"0%","upOrDown":2},"desc":[]},{"col1":{"text":17},"col2":{"text":"Microsoft\/\u5fae\u8f6f","url":"\/\/s.taobao.com\/search?q=Microsoft\/\u5fae\u8f6f&cat=1101"},"col3":[],"col4":{"num":"9517.6","percent":5.57837},"col5":{"text":0,"upOrDown":2},"col6":{"text":"0%","upOrDown":2},"desc":[]},{"col1":{"text":18},"col2":{"text":"QRTECH","url":"\/\/s.taobao.com\/search?q=QRTECH&cat=1101"},"col3":[],"col4":{"num":"9050.1","percent":4.368},"col5":{"text":0,"upOrDown":2},"col6":{"text":"0%","upOrDown":2},"desc":[]},{"col1":{"text":19},"col2":{"text":"Samsung\/\u4e09\u661f","url":"\/\/s.taobao.com\/search?q=Samsung\/\u4e09\u661f&cat=1101"},"col3":[],"col4":{"num":"8673.2","percent":3.56428},"col5":{"text":0,"upOrDown":2},"col6":{"text":"0%","upOrDown":2},"desc":[]},{"col1":{"text":20},"col2":{"text":"\u9ea6\u672c\u672c","url":"\/\/s.taobao.com\/search?q=\u9ea6\u672c\u672c&cat=1101"},"col3":[],"col4":{"num":"8369.6","percent":3.01258},"col5":{"text":1,"upOrDown":1},"col6":{"text":"4.8%","upOrDown":1},"desc":[]}],"spmModId":"5"},"status":"show"},"pager":{"data":{"pageSize":20,"totalCount":100,"totalPage":5,"currentPage":1,"url":"\/index.php?spm=a1z5i.3.4.6.Xlx35B&topId=TR_SM&leafId=1101&rank=brand&type=hot","spmModId":"8"},"status":"show"}}}